%YAML 1.1
%TAG !u! tag:unity3d.com,2011:
--- !u!21 &2100000
Material:
  serializedVersion: 8
  m_ObjectHideFlags: 0
  m_CorrespondingSourceObject: {fileID: 0}
  m_PrefabInstance: {fileID: 0}
  m_PrefabAsset: {fileID: 0}
  m_Name: Cobija
  m_Shader: {fileID: 4800000, guid: 313fcf3aebc04cf4ab4f8c5f2850be7f, type: 3}
  m_Parent: {fileID: 0}
  m_ModifiedSerializedProperties: 0
  m_ValidKeywords: []
  m_InvalidKeywords: []
  m_LightmapFlags: 4
  m_EnableInstancingVariants: 0
  m_DoubleSidedGI: 0
  m_CustomRenderQueue: 2000
  stringTagMap: {}
  disabledShaderPasses: []
  m_LockedProperties: 
  m_SavedProperties:
    serializedVersion: 3
    m_TexEnvs:
    - _BaseMap:
        m_Texture: {fileID: 0}
        m_Scale: {x: 1, y: 1}
        m_Offset: {x: 0, y: 0}
    m_Ints: []
    m_Floats:
    - Step1: 1
    - _Gloss: 5.37
    - _OutlineWidth: 1
    - _RimPower: 2.2
    - _RimStep: 0.678
    - _RimStepSmooth: 0
    - _ShadowStep: 0.684
    - _ShadowStepSmooth: 0
    - _SpecularStep: 0
    - _SpecularStepSmooth: 0
    - _Step: 0.432
    - _Step1: 0.537
    - _Step2: 0.018
    - _Step3: 0.97
    - _Step4: 0.025
    m_Colors:
    - _BaseColor: {r: 1, g: 0.18849045, b: 0.058823526, a: 1}
    - _HighColor: {r: 0, g: 0, b: 0, a: 1}
    - _OutlineColor: {r: 0, g: 0, b: 0, a: 1}
    - _RimColor: {r: 0, g: 0, b: 0, a: 1}
    - _SpecularColor: {r: 1, g: 1, b: 1, a: 1}
  m_BuildTextureStacks: []
