%YAML 1.1
%TAG !u! tag:unity3d.com,2011:
--- !u!21 &2100000
Material:
  serializedVersion: 8
  m_ObjectHideFlags: 0
  m_CorrespondingSourceObject: {fileID: 0}
  m_PrefabInstance: {fileID: 0}
  m_PrefabAsset: {fileID: 0}
  m_Name: troncos 10
  m_Shader: {fileID: 4800000, guid: 313fcf3aebc04cf4ab4f8c5f2850be7f, type: 3}
  m_Parent: {fileID: 2100000, guid: c84281022ff925347936588356684efe, type: 2}
  m_ModifiedSerializedProperties: 0
  m_ValidKeywords: []
  m_InvalidKeywords: []
  m_LightmapFlags: 4
  m_EnableInstancingVariants: 0
  m_DoubleSidedGI: 0
  m_CustomRenderQueue: -1
  stringTagMap: {}
  disabledShaderPasses: []
  m_LockedProperties: 
  m_SavedProperties:
    serializedVersion: 3
    m_TexEnvs: []
    m_Ints: []
    m_Floats:
    - _Gloss: 5.37
    - _OutlineWidth: 0.01
    - _RimStep: 0.678
    - _RimStepSmooth: 0
    - _ShadowStep: 0.684
    - _ShadowStepSmooth: 0
    - _SpecularStep: 0
    - _SpecularStepSmooth: 0
    m_Colors:
    - _BaseColor: {r: 1, g: 0.9974912, b: 0, a: 1}
    - _HighColor: {r: 0, g: 0, b: 0, a: 1}
    - _RimColor: {r: 0, g: 0, b: 0, a: 1}
  m_BuildTextureStacks: []
